{
    "pagination": {
        "pageSize": 50,
        "currentPage": 1,
        "totalItems": 663,
        "totalPages": 14
    },
    "resourceBaseUri": "http://reports.sem-o.com/documents",
    "items": [
        {
            "_id": "5dbc092c9620d9102b3e4f04",
            "Date": "2019-11-01",
            "PublishTime": "2019-11-01T10:03:08",
            "DPuG_ID": "BM-095",
            "ReportName": "Balancing and Imbalance Market Cost View",
            "Group": [
                "Settlement Data"
            ],
            "Dynamic": true,
            "ResourceName": "PUB_30MinImbalCost_201911010900.xml"
        },
        {
            "_id": "5dbc173e9620d936387fcc54",
            "Date": "2019-11-01",
            "PublishTime": "2019-11-01T11:03:01",
            "DPuG_ID": "BM-095",
            "ReportName": "Balancing and Imbalance Market Cost View",
            "Group": [
                "Settlement Data"
            ],
            "Dynamic": true,
            "ResourceName": "PUB_30MinImbalCost_201911011000.xml"
        },
        {
            "_id": "5dbc5d8b9620d9736b23fc94",
            "Date": "2019-11-01",
            "PublishTime": "2019-11-01T16:02:45",
            "DPuG_ID": "BM-095",
            "ReportName": "Balancing and Imbalance Market Cost View",
            "Group": [
                "Settlement Data"
            ],
            "Dynamic": true,
            "ResourceName": "PUB_30MinImbalCost_201911011500.xml"
        },
        {
            "_id": "5dba392c9620d907fe348af4",
            "Date": "2019-10-31",
            "PublishTime": "2019-10-31T01:03:03",
            "DPuG_ID": "BM-095",
            "ReportName": "Balancing and Imbalance Market Cost View",
            "Group": [
                "Settlement Data"
            ],
            "Dynamic": true,
            "ResourceName": "PUB_30MinImbalCost_201910310000.xml"
        },
        {
            "_id": "5db508339620d930c5383f54",
            "Date": "2019-10-27",
            "PublishTime": "2019-10-27T02:32:33",
            "DPuG_ID": "BM-095",
            "ReportName": "Balancing and Imbalance Market Cost View",
            "Group": [
                "Settlement Data"
            ],
            "Dynamic": true,
            "ResourceName": "PUB_30MinImbalCost_201910270130.xml"
        },
        {
            "_id": "5db571ac9620d93c90155924",
            "Date": "2019-10-27",
            "PublishTime": "2019-10-27T10:02:52",
            "DPuG_ID": "BM-095",
            "ReportName": "Balancing and Imbalance Market Cost View",
            "Group": [
                "Settlement Data"
            ],
            "Dynamic": true,
            "ResourceName": "PUB_30MinImbalCost_201910270900.xml"
        },
        {
            "_id": "5db64ba39620d963424fc504",
            "Date": "2019-10-28",
            "PublishTime": "2019-10-28T01:33:52",
            "DPuG_ID": "BM-095",
            "ReportName": "Balancing and Imbalance Market Cost View",
            "Group": [
                "Settlement Data"
            ],
            "Dynamic": true,
            "ResourceName": "PUB_30MinImbalCost_201910280030.xml"
        },
        {
            "_id": "5db8b6649620d903404eeae4",
            "Date": "2019-10-29",
            "PublishTime": "2019-10-29T21:32:51",
            "DPuG_ID": "BM-095",
            "ReportName": "Balancing and Imbalance Market Cost View",
            "Group": [
                "Settlement Data"
            ],
            "Dynamic": true,
            "ResourceName": "PUB_30MinImbalCost_201910292030.xml"
        },
        {
            "_id": "5db4ec129620d96d2a51ae34",
            "Date": "2019-10-27",
            "PublishTime": "2019-10-27T00:32:35",
            "DPuG_ID": "BM-095",
            "ReportName": "Balancing and Imbalance Market Cost View",
            "Group": [
                "Settlement Data"
            ],
            "Dynamic": true,
            "ResourceName": "PUB_30MinImbalCost_201910262330.xml"
        },
        {
            "_id": "5db586c29620d9726d01b8a4",
            "Date": "2019-10-27",
            "PublishTime": "2019-10-27T11:33:30",
            "DPuG_ID": "BM-095",
            "ReportName": "Balancing and Imbalance Market Cost View",
            "Group": [
                "Settlement Data"
            ],
            "Dynamic": true,
            "ResourceName": "PUB_30MinImbalCost_201910271030.xml"
        },
        {
            "_id": "5db5c2869620d90d8d44db34",
            "Date": "2019-10-27",
            "PublishTime": "2019-10-27T16:02:47",
            "DPuG_ID": "BM-095",
            "ReportName": "Balancing and Imbalance Market Cost View",
            "Group": [
                "Settlement Data"
            ],
            "Dynamic": true,
            "ResourceName": "PUB_30MinImbalCost_201910271500.xml"
        },
        {
            "_id": "5db5d41a9620d93ad6621ff4",
            "Date": "2019-10-27",
            "PublishTime": "2019-10-27T17:02:23",
            "DPuG_ID": "BM-095",
            "ReportName": "Balancing and Imbalance Market Cost View",
            "Group": [
                "Settlement Data"
            ],
            "Dynamic": true,
            "ResourceName": "PUB_30MinImbalCost_201910271600.xml"
        },
        {
            "_id": "5db621759620d97ba656af5b",
            "Date": "2019-10-27",
            "PublishTime": "2019-10-27T22:33:37",
            "DPuG_ID": "BM-095",
            "ReportName": "Balancing and Imbalance Market Cost View",
            "Group": [
                "Settlement Data"
            ],
            "Dynamic": true,
            "ResourceName": "PUB_30MinImbalCost_201910272130.xml"
        },
        {
            "_id": "5db691f39620d91015380fb4",
            "Date": "2019-10-28",
            "PublishTime": "2019-10-28T06:33:31",
            "DPuG_ID": "BM-095",
            "ReportName": "Balancing and Imbalance Market Cost View",
            "Group": [
                "Settlement Data"
            ],
            "Dynamic": true,
            "ResourceName": "PUB_30MinImbalCost_201910280530.xml"
        },
        {
            "_id": "5db74fca9620d975ae3fa294",
            "Date": "2019-10-28",
            "PublishTime": "2019-10-28T20:04:04",
            "DPuG_ID": "BM-095",
            "ReportName": "Balancing and Imbalance Market Cost View",
            "Group": [
                "Settlement Data"
            ],
            "Dynamic": true,
            "ResourceName": "PUB_30MinImbalCost_201910281900.xml"
        },
        {
            "_id": "5db96d329620d9580b71a314",
            "Date": "2019-10-30",
            "PublishTime": "2019-10-30T10:32:28",
            "DPuG_ID": "BM-095",
            "ReportName": "Balancing and Imbalance Market Cost View",
            "Group": [
                "Settlement Data"
            ],
            "Dynamic": true,
            "ResourceName": "PUB_30MinImbalCost_201910300930.xml"
        },
        {
            "_id": "5dba6a549620d90f0d2f74a6",
            "Date": "2019-10-31",
            "PublishTime": "2019-10-31T04:32:17",
            "DPuG_ID": "BM-095",
            "ReportName": "Balancing and Imbalance Market Cost View",
            "Group": [
                "Settlement Data"
            ],
            "Dynamic": true,
            "ResourceName": "PUB_30MinImbalCost_201910310330.xml"
        },
        {
            "_id": "5dba9b8c9620d918fc6f1614",
            "Date": "2019-10-31",
            "PublishTime": "2019-10-31T08:02:56",
            "DPuG_ID": "BM-095",
            "ReportName": "Balancing and Imbalance Market Cost View",
            "Group": [
                "Settlement Data"
            ],
            "Dynamic": true,
            "ResourceName": "PUB_30MinImbalCost_201910310700.xml"
        },
        {
            "_id": "5dbb05099620d941a1335635",
            "Date": "2019-10-31",
            "PublishTime": "2019-10-31T14:32:25",
            "DPuG_ID": "BM-095",
            "ReportName": "Balancing and Imbalance Market Cost View",
            "Group": [
                "Settlement Data"
            ],
            "Dynamic": true,
            "ResourceName": "PUB_30MinImbalCost_201910311331.xml"
        },
        {
            "_id": "5dbb05099620d941a1335637",
            "Date": "2019-10-31",
            "PublishTime": "2019-10-31T15:32:30",
            "DPuG_ID": "BM-095",
            "ReportName": "Balancing and Imbalance Market Cost View",
            "Group": [
                "Settlement Data"
            ],
            "Dynamic": true,
            "ResourceName": "PUB_30MinImbalCost_201910311430.xml"
        },
        {
            "_id": "5dbb91a29620d94e8e5d9384",
            "Date": "2019-11-01",
            "PublishTime": "2019-11-01T01:32:28",
            "DPuG_ID": "BM-095",
            "ReportName": "Balancing and Imbalance Market Cost View",
            "Group": [
                "Settlement Data"
            ],
            "Dynamic": true,
            "ResourceName": "PUB_30MinImbalCost_201911010030.xml"
        },
        {
            "_id": "5dbb98ac9620d961a5602c54",
            "Date": "2019-11-01",
            "PublishTime": "2019-11-01T02:03:00",
            "DPuG_ID": "BM-095",
            "ReportName": "Balancing and Imbalance Market Cost View",
            "Group": [
                "Settlement Data"
            ],
            "Dynamic": true,
            "ResourceName": "PUB_30MinImbalCost_201911010100.xml"
        },
        {
            "_id": "5dbb9fb59620d973e7401f94",
            "Date": "2019-11-01",
            "PublishTime": "2019-11-01T02:33:06",
            "DPuG_ID": "BM-095",
            "ReportName": "Balancing and Imbalance Market Cost View",
            "Group": [
                "Settlement Data"
            ],
            "Dynamic": true,
            "ResourceName": "PUB_30MinImbalCost_201911010130.xml"
        },
        {
            "_id": "5dbbb4cc9620d92d224afd34",
            "Date": "2019-11-01",
            "PublishTime": "2019-11-01T04:03:05",
            "DPuG_ID": "BM-095",
            "ReportName": "Balancing and Imbalance Market Cost View",
            "Group": [
                "Settlement Data"
            ],
            "Dynamic": true,
            "ResourceName": "PUB_30MinImbalCost_201911010300.xml"
        },
        {
            "_id": "5dbbd0ed9620d978de77c326",
            "Date": "2019-11-01",
            "PublishTime": "2019-11-01T06:02:40",
            "DPuG_ID": "BM-095",
            "ReportName": "Balancing and Imbalance Market Cost View",
            "Group": [
                "Settlement Data"
            ],
            "Dynamic": true,
            "ResourceName": "PUB_30MinImbalCost_201911010500.xml"
        },
        {
            "_id": "5dbbe6039620d931921d4d24",
            "Date": "2019-11-01",
            "PublishTime": "2019-11-01T07:32:06",
            "DPuG_ID": "BM-095",
            "ReportName": "Balancing and Imbalance Market Cost View",
            "Group": [
                "Settlement Data"
            ],
            "Dynamic": true,
            "ResourceName": "PUB_30MinImbalCost_201911010630.xml"
        },
        {
            "_id": "5dbbf41a9620d9570239a04c",
            "Date": "2019-11-01",
            "PublishTime": "2019-11-01T08:32:25",
            "DPuG_ID": "BM-095",
            "ReportName": "Balancing and Imbalance Market Cost View",
            "Group": [
                "Settlement Data"
            ],
            "Dynamic": true,
            "ResourceName": "PUB_30MinImbalCost_201911010730.xml"
        },
        {
            "_id": "5dbbfb1e9620d96a0f48d984",
            "Date": "2019-11-01",
            "PublishTime": "2019-11-01T09:04:01",
            "DPuG_ID": "BM-095",
            "ReportName": "Balancing and Imbalance Market Cost View",
            "Group": [
                "Settlement Data"
            ],
            "Dynamic": true,
            "ResourceName": "PUB_30MinImbalCost_201911010800.xml"
        },
        {
            "_id": "5dbc02269620d97bdd51db74",
            "Date": "2019-11-01",
            "PublishTime": "2019-11-01T09:33:44",
            "DPuG_ID": "BM-095",
            "ReportName": "Balancing and Imbalance Market Cost View",
            "Group": [
                "Settlement Data"
            ],
            "Dynamic": true,
            "ResourceName": "PUB_30MinImbalCost_201911010830.xml"
        },
        {
            "_id": "5dbc10379620d922da0ead74",
            "Date": "2019-11-01",
            "PublishTime": "2019-11-01T10:33:45",
            "DPuG_ID": "BM-095",
            "ReportName": "Balancing and Imbalance Market Cost View",
            "Group": [
                "Settlement Data"
            ],
            "Dynamic": true,
            "ResourceName": "PUB_30MinImbalCost_201911010930.xml"
        },
        {
            "_id": "5dbc1e4e9620d947b7310c8d",
            "Date": "2019-11-01",
            "PublishTime": "2019-11-01T11:32:31",
            "DPuG_ID": "BM-095",
            "ReportName": "Balancing and Imbalance Market Cost View",
            "Group": [
                "Settlement Data"
            ],
            "Dynamic": true,
            "ResourceName": "PUB_30MinImbalCost_201911011030.xml"
        },
        {
            "_id": "5dbc3a629620d914d045b734",
            "Date": "2019-11-01",
            "PublishTime": "2019-11-01T13:32:30",
            "DPuG_ID": "BM-095",
            "ReportName": "Balancing and Imbalance Market Cost View",
            "Group": [
                "Settlement Data"
            ],
            "Dynamic": true,
            "ResourceName": "PUB_30MinImbalCost_201911011230.xml"
        },
        {
            "_id": "5dbc416d9620d927df2bcb74",
            "Date": "2019-11-01",
            "PublishTime": "2019-11-01T14:03:00",
            "DPuG_ID": "BM-095",
            "ReportName": "Balancing and Imbalance Market Cost View",
            "Group": [
                "Settlement Data"
            ],
            "Dynamic": true,
            "ResourceName": "PUB_30MinImbalCost_201911011300.xml"
        },
        {
            "_id": "5dbc48729620d9399d0ee4b4",
            "Date": "2019-11-01",
            "PublishTime": "2019-11-01T14:32:32",
            "DPuG_ID": "BM-095",
            "ReportName": "Balancing and Imbalance Market Cost View",
            "Group": [
                "Settlement Data"
            ],
            "Dynamic": true,
            "ResourceName": "PUB_30MinImbalCost_201911011330.xml"
        },
        {
            "_id": "5dbc4f7c9620d94dca51b3a4",
            "Date": "2019-11-01",
            "PublishTime": "2019-11-01T15:02:37",
            "DPuG_ID": "BM-095",
            "ReportName": "Balancing and Imbalance Market Cost View",
            "Group": [
                "Settlement Data"
            ],
            "Dynamic": true,
            "ResourceName": "PUB_30MinImbalCost_201911011400.xml"
        },
        {
            "_id": "5dbc56849620d960147a7e84",
            "Date": "2019-11-01",
            "PublishTime": "2019-11-01T15:32:23",
            "DPuG_ID": "BM-095",
            "ReportName": "Balancing and Imbalance Market Cost View",
            "Group": [
                "Settlement Data"
            ],
            "Dynamic": true,
            "ResourceName": "PUB_30MinImbalCost_201911011430.xml"
        },
        {
            "_id": "5dbc64929620d9072f546364",
            "Date": "2019-11-01",
            "PublishTime": "2019-11-01T16:32:11",
            "DPuG_ID": "BM-095",
            "ReportName": "Balancing and Imbalance Market Cost View",
            "Group": [
                "Settlement Data"
            ],
            "Dynamic": true,
            "ResourceName": "PUB_30MinImbalCost_201911011530.xml"
        },
        {
            "_id": "5dbc72a19620d92ca5606334",
            "Date": "2019-11-01",
            "PublishTime": "2019-11-01T17:32:20",
            "DPuG_ID": "BM-095",
            "ReportName": "Balancing and Imbalance Market Cost View",
            "Group": [
                "Settlement Data"
            ],
            "Dynamic": true,
            "ResourceName": "PUB_30MinImbalCost_201911011630.xml"
        },
        {
            "_id": "5dbc79b29620d9406f0d748e",
            "Date": "2019-11-01",
            "PublishTime": "2019-11-01T18:02:45",
            "DPuG_ID": "BM-095",
            "ReportName": "Balancing and Imbalance Market Cost View",
            "Group": [
                "Settlement Data"
            ],
            "Dynamic": true,
            "ResourceName": "PUB_30MinImbalCost_201911011700.xml"
        },
        {
            "_id": "5dbc9cd29620d91e23083a84",
            "Date": "2019-11-01",
            "PublishTime": "2019-11-01T20:32:17",
            "DPuG_ID": "BM-095",
            "ReportName": "Balancing and Imbalance Market Cost View",
            "Group": [
                "Settlement Data"
            ],
            "Dynamic": true,
            "ResourceName": "PUB_30MinImbalCost_201911011930.xml"
        },
        {
            "_id": "5dbcb1ed9620d956f953caa4",
            "Date": "2019-11-01",
            "PublishTime": "2019-11-01T22:03:27",
            "DPuG_ID": "BM-095",
            "ReportName": "Balancing and Imbalance Market Cost View",
            "Group": [
                "Settlement Data"
            ],
            "Dynamic": true,
            "ResourceName": "PUB_30MinImbalCost_201911012100.xml"
        },
        {
            "_id": "5dbcc7029620d90ef94d4844",
            "Date": "2019-11-01",
            "PublishTime": "2019-11-01T23:33:10",
            "DPuG_ID": "BM-095",
            "ReportName": "Balancing and Imbalance Market Cost View",
            "Group": [
                "Settlement Data"
            ],
            "Dynamic": true,
            "ResourceName": "PUB_30MinImbalCost_201911012230.xml"
        },
        {
            "_id": "5dbcce0d9620d920862eea76",
            "Date": "2019-11-02",
            "PublishTime": "2019-11-02T00:03:27",
            "DPuG_ID": "BM-095",
            "ReportName": "Balancing and Imbalance Market Cost View",
            "Group": [
                "Settlement Data"
            ],
            "Dynamic": true,
            "ResourceName": "PUB_30MinImbalCost_201911012300.xml"
        },
        {
            "_id": "5dbe6ce39620d94faa797a74",
            "Date": "2019-11-03",
            "PublishTime": "2019-11-03T05:31:53",
            "DPuG_ID": "BM-095",
            "ReportName": "Balancing and Imbalance Market Cost View",
            "Group": [
                "Settlement Data"
            ],
            "Dynamic": true,
            "ResourceName": "PUB_30MinImbalCost_201911030430.xml"
        },
        {
            "_id": "5dbfb75a9620d926c2141fe4",
            "Date": "2019-11-04",
            "PublishTime": "2019-11-04T05:03:32",
            "DPuG_ID": "BM-095",
            "ReportName": "Balancing and Imbalance Market Cost View",
            "Group": [
                "Settlement Data"
            ],
            "Dynamic": true,
            "ResourceName": "PUB_30MinImbalCost_201911040400.xml"
        },
        {
            "_id": "5dc0012f9620d966305264d4",
            "Date": "2019-11-04",
            "PublishTime": "2019-11-04T10:32:21",
            "DPuG_ID": "BM-095",
            "ReportName": "Balancing and Imbalance Market Cost View",
            "Group": [
                "Settlement Data"
            ],
            "Dynamic": true,
            "ResourceName": "PUB_30MinImbalCost_201911040930.xml"
        },
        {
            "_id": "5dc06e339620d97c4319131e",
            "Date": "2019-11-04",
            "PublishTime": "2019-11-04T18:02:15",
            "DPuG_ID": "BM-095",
            "ReportName": "Balancing and Imbalance Market Cost View",
            "Group": [
                "Settlement Data"
            ],
            "Dynamic": true,
            "ResourceName": "PUB_30MinImbalCost_201911041700.xml"
        },
        {
            "_id": "5dc101d29620d97254061d26",
            "Date": "2019-11-05",
            "PublishTime": "2019-11-05T04:32:41",
            "DPuG_ID": "BM-095",
            "ReportName": "Balancing and Imbalance Market Cost View",
            "Group": [
                "Settlement Data"
            ],
            "Dynamic": true,
            "ResourceName": "PUB_30MinImbalCost_201911050330.xml"
        },
        {
            "_id": "5dc1411b9620d917e741d7e4",
            "Date": "2019-11-05",
            "PublishTime": "2019-11-05T09:04:34",
            "DPuG_ID": "BM-095",
            "ReportName": "Balancing and Imbalance Market Cost View",
            "Group": [
                "Settlement Data"
            ],
            "Dynamic": true,
            "ResourceName": "PUB_30MinImbalCost_201911050800.xml"
        },
        {
            "_id": "5dc148239620d9295332d274",
            "Date": "2019-11-05",
            "PublishTime": "2019-11-05T09:33:46",
            "DPuG_ID": "BM-095",
            "ReportName": "Balancing and Imbalance Market Cost View",
            "Group": [
                "Settlement Data"
            ],
            "Dynamic": true,
            "ResourceName": "PUB_30MinImbalCost_201911050830.xml"
        }
    ]
}