{
    "pagination": {
        "pageSize": 50,
        "currentPage": 1,
        "totalItems": 20908,
        "totalPages": 419
    },
    "resourceBaseUri": "http://reports.sem-o.com/documents",
    "items": [
        {
            "_id": "5ac0a316e0cac44fc83e5f47",
            "Date": "2018-04-01",
            "PublishTime": "2018-04-01T09:00:02",
            "DPuG_ID": "BM-003",
            "ReportName": "Registered Capacity",
            "Group": [
                "Registration"
            ],
            "Dynamic": false,
            "ResourceName": "PUB_MnlyRegisteredCapacity_201804010900.xml"
        },
        {
            "_id": "5ac0a316e0cac44fc83e5f48",
            "Date": "2018-05-01",
            "PublishTime": "2018-04-01T09:00:03",
            "DPuG_ID": "BM-011",
            "ReportName": "Monthly Load Forecast and Assumptions",
            "Group": [
                "Forecast Data"
            ],
            "Dynamic": false,
            "ResourceName": "PUB_MonthlyLoadFcst_201804010900.xml"
        },
        {
            "_id": "5d834e769620d9112885baf6",
            "Date": "2019-09-20",
            "PublishTime": "2019-09-19T09:15:01",
            "DPuG_ID": "BM-102",
            "ReportName": "Unit Under Test",
            "Group": [
                "Settlement Data"
            ],
            "Dynamic": true,
            "ResourceName": "PUB_DailyUnitUnderTest_201909190915.xml"
        },
        {
            "_id": "5d839f019620d95d502083d3",
            "Date": "2019-09-19",
            "PublishTime": "2019-09-19T15:10:16",
            "DPuG_ID": "BM-010",
            "ReportName": "Daily Load Forecast Summary",
            "Group": [
                "Forecast Data"
            ],
            "Dynamic": true,
            "ResourceName": "PUB_DailyLoadFcst_201909191510.xml"
        },
        {
            "_id": "5d89de969620d92c31582c3a",
            "Date": "2019-09-24",
            "PublishTime": "2019-09-24T08:44:26",
            "DPuG_ID": "BM-010",
            "ReportName": "Daily Load Forecast Summary",
            "Group": [
                "Forecast Data"
            ],
            "Dynamic": true,
            "ResourceName": "PUB_DailyLoadFcst_201909240844.xml"
        },
        {
            "_id": "5d8cf59e9620d971a83a0613",
            "DPuG_ID": "EA-004",
            "ReportName": "Bid/Ask Curves",
            "Group": [
                "Market Data"
            ],
            "Dynamic": true,
            "ResourceName": "BidAskCurves_ROI-IDA1_20190927_20190926191036.xml",
            "PublishTime": "2019-09-28T00:00:04",
            "Date": "2019-09-27"
        },
        {
            "_id": "5d8cf5a09620d971a83a0649",
            "Date": "2019-09-25",
            "PublishTime": "2019-09-26T17:05:39+00:00",
            "DPuG_ID": "BM-103",
            "ReportName": "Energy Market Financial Publication \u2013 Indicative",
            "Group": [
                "Settlement Data"
            ],
            "Dynamic": false,
            "ResourceName": "EF_PT_ALL_20190925_20190926_BALIMB_INDIC_20190926T170539.XML"
        },
        {
            "_id": "5d90091b9620d94f6c274422",
            "Date": "2019-09-29",
            "PublishTime": "2019-09-29T01:10:11",
            "DPuG_ID": "BM-010",
            "ReportName": "Daily Load Forecast Summary",
            "Group": [
                "Forecast Data"
            ],
            "Dynamic": true,
            "ResourceName": "PUB_DailyLoadFcst_201909290110.xml"
        },
        {
            "_id": "5d92af9f9620d961294cd276",
            "Date": "2019-10-01",
            "PublishTime": "2019-10-01T01:10:15",
            "DPuG_ID": "BM-010",
            "ReportName": "Daily Load Forecast Summary",
            "Group": [
                "Forecast Data"
            ],
            "Dynamic": true,
            "ResourceName": "PUB_DailyLoadFcst_201910010110.xml"
        },
        {
            "_id": "5d92cbbe9620d926db79eac2",
            "Date": "2019-10-01",
            "PublishTime": "2019-10-01T03:10:16",
            "DPuG_ID": "BM-010",
            "ReportName": "Daily Load Forecast Summary",
            "Group": [
                "Forecast Data"
            ],
            "Dynamic": true,
            "ResourceName": "PUB_DailyLoadFcst_201910010310.xml"
        },
        {
            "_id": "5d92cf429620d92f0d3e3253",
            "PublishTime": "2019-10-01T04:00:02",
            "Date": "2019-09-30",
            "DPuG_ID": "EA-007",
            "ReportName": "Intraday Market Results Trade",
            "Group": [
                "Market Data"
            ],
            "Dynamic": false,
            "ResourceName": "IDC_TradeFile_20190930_20191001053452.xml"
        },
        {
            "_id": "5d93208d9620d978e913a08b",
            "Date": "2019-09-30",
            "PublishTime": "2019-10-01T09:15:01",
            "DPuG_ID": "BM-034",
            "ReportName": "Commercial Offer Data Accepted",
            "Group": [
                "Inputs, Commerical and Technical Offer Data"
            ],
            "Dynamic": false,
            "ResourceName": "PUB_DailyCommercialOfferData_201910010915.xml"
        },
        {
            "_id": "5d93208e9620d978e913a08c",
            "Date": "2019-09-30",
            "PublishTime": "2019-10-01T09:24:31",
            "DPuG_ID": "BM-036",
            "ReportName": "Demand Control",
            "Group": [
                "Inputs, Commerical and Technical Offer Data"
            ],
            "Dynamic": true,
            "ResourceName": "PUB_DailyDemandControlData_201910010924.xml"
        },
        {
            "_id": "5d932ab39620d914902754ea",
            "Date": "2019-09-24",
            "PublishTime": "2019-10-01T10:03:52+00:00",
            "DPuG_ID": "BM-094",
            "ReportName": "Metered Volumes by Jurisdiction",
            "Group": [
                "Settlement Data"
            ],
            "Dynamic": false,
            "ResourceName": "MJ_GP_ALL_20190924_20191001_BALIMB_INIT_20191001T100352.XML"
        },
        {
            "_id": "5d93acbf9620d95e3e33b932",
            "Date": "2019-10-01",
            "PublishTime": "2019-10-01T19:10:21",
            "DPuG_ID": "BM-010",
            "ReportName": "Daily Load Forecast Summary",
            "Group": [
                "Forecast Data"
            ],
            "Dynamic": true,
            "ResourceName": "PUB_DailyLoadFcst_201910011910.xml"
        },
        {
            "_id": "5d93be559620d90b3912a43c",
            "Date": "2019-10-02",
            "PublishTime": "2019-10-01T20:30:02",
            "DPuG_ID": "BM-033",
            "ReportName": "Forecast Availability",
            "Group": [
                "Inputs, Commerical and Technical Offer Data"
            ],
            "Dynamic": true,
            "ResourceName": "PUB_DailyForecastAvailability_201910012030.xml"
        },
        {
            "_id": "5d93f30f9620d90c5e22d488",
            "Date": "2019-10-02",
            "PublishTime": "2019-10-02T00:10:31",
            "DPuG_ID": "BM-010",
            "ReportName": "Daily Load Forecast Summary",
            "Group": [
                "Forecast Data"
            ],
            "Dynamic": true,
            "ResourceName": "PUB_DailyLoadFcst_201910020010.xml"
        },
        {
            "_id": "5d95aa829620d9640a199042",
            "DPuG_ID": "EA-004",
            "ReportName": "Bid/Ask Curves",
            "Group": [
                "Market Data"
            ],
            "Dynamic": true,
            "ResourceName": "BidAskCurves_NI-IDA2_20191003_20191003094036.xml",
            "PublishTime": "2019-10-04T00:00:03",
            "Date": "2019-10-03"
        },
        {
            "_id": "5d95aa839620d9640a19905b",
            "DPuG_ID": "EA-004",
            "ReportName": "Bid/Ask Curves",
            "Group": [
                "Market Data"
            ],
            "Dynamic": true,
            "ResourceName": "BidAskCurves_ROI-IDA2_20191003_20191003094036.xml",
            "PublishTime": "2019-10-04T00:00:03",
            "Date": "2019-10-03"
        },
        {
            "_id": "5d9c81509620d93cd75a0990",
            "Date": "2019-10-08",
            "PublishTime": "2019-10-08T12:01:21",
            "DPuG_ID": "BM-013",
            "ReportName": "Four Day Aggregated Rolling Wind Unit Forecast",
            "Group": [
                "Forecast Data"
            ],
            "Dynamic": true,
            "ResourceName": "PUB_4DayAggRollWindUnitFcst_201910081201.xml"
        },
        {
            "_id": "5d9c92e09620d969217e6cbd",
            "DPuG_ID": "EA-006",
            "ReportName": "Exchange Transparency",
            "Group": [
                "Market Data"
            ],
            "Dynamic": false,
            "ResourceName": "ExchangeTransparencyData_NI-IDA3_20191008_20191008151728.xml",
            "PublishTime": "2019-10-09T00:00:04",
            "Date": "2019-10-08"
        },
        {
            "_id": "5d9c92e09620d969217e6cbe",
            "DPuG_ID": "EA-006",
            "ReportName": "Exchange Transparency",
            "Group": [
                "Market Data"
            ],
            "Dynamic": false,
            "ResourceName": "ExchangeTransparencyData_ROI-IDA3_20191008_20191008151728.xml",
            "PublishTime": "2019-10-09T00:00:05",
            "Date": "2019-10-08"
        },
        {
            "_id": "5d9d93849620d97384057bf2",
            "DPuG_ID": "EA-004",
            "ReportName": "Bid/Ask Curves",
            "Group": [
                "Market Data"
            ],
            "Dynamic": true,
            "ResourceName": "BidAskCurves_NI-IDA2_20191009_20191009094048.xml",
            "PublishTime": "2019-10-10T00:00:03",
            "Date": "2019-10-09"
        },
        {
            "_id": "5db6aa8f9620d94e7f60d4d6",
            "Date": "2019-10-28",
            "PublishTime": "2019-10-28T08:08:40",
            "DPuG_ID": "BM-025",
            "ReportName": "Imbalance Price Report (Imbalance Pricing Period)",
            "Group": [
                "Inputs, Commerical and Technical Offer Data"
            ],
            "Dynamic": true,
            "ResourceName": "PUB_5MinImbalPrc_201910280745.xml"
        },
        {
            "_id": "5dba9b8d9620d918fc6f161b",
            "Date": "2019-10-31",
            "PublishTime": "2019-10-31T07:57:46",
            "DPuG_ID": "BM-025",
            "ReportName": "Imbalance Price Report (Imbalance Pricing Period)",
            "Group": [
                "Inputs, Commerical and Technical Offer Data"
            ],
            "Dynamic": true,
            "ResourceName": "PUB_5MinImbalPrc_201910310735.xml"
        },
        {
            "_id": "5dba9b8d9620d918fc6f161d",
            "Date": "2019-10-31",
            "PublishTime": "2019-10-31T08:04:11",
            "DPuG_ID": "BM-025",
            "ReportName": "Imbalance Price Report (Imbalance Pricing Period)",
            "Group": [
                "Inputs, Commerical and Technical Offer Data"
            ],
            "Dynamic": true,
            "ResourceName": "PUB_5MinImbalPrc_201910310740.xml"
        },
        {
            "_id": "5dbb98ad9620d961a5602c5a",
            "Date": "2019-11-01",
            "PublishTime": "2019-11-01T01:52:41",
            "DPuG_ID": "BM-025",
            "ReportName": "Imbalance Price Report (Imbalance Pricing Period)",
            "Group": [
                "Inputs, Commerical and Technical Offer Data"
            ],
            "Dynamic": true,
            "ResourceName": "PUB_5MinImbalPrc_201911010130.xml"
        },
        {
            "_id": "5dbb98ad9620d961a5602c5c",
            "Date": "2019-11-01",
            "PublishTime": "2019-11-01T01:58:50",
            "DPuG_ID": "BM-025",
            "ReportName": "Imbalance Price Report (Imbalance Pricing Period)",
            "Group": [
                "Inputs, Commerical and Technical Offer Data"
            ],
            "Dynamic": true,
            "ResourceName": "PUB_5MinImbalPrc_201911010135.xml"
        },
        {
            "_id": "5dbb98ae9620d961a5602c5e",
            "Date": "2019-11-01",
            "PublishTime": "2019-11-01T02:04:16",
            "DPuG_ID": "BM-025",
            "ReportName": "Imbalance Price Report (Imbalance Pricing Period)",
            "Group": [
                "Inputs, Commerical and Technical Offer Data"
            ],
            "Dynamic": true,
            "ResourceName": "PUB_5MinImbalPrc_201911010140.xml"
        },
        {
            "_id": "5dbb98ae9620d961a5602c60",
            "Date": "2019-11-01",
            "PublishTime": "2019-11-01T02:07:45",
            "DPuG_ID": "BM-025",
            "ReportName": "Imbalance Price Report (Imbalance Pricing Period)",
            "Group": [
                "Inputs, Commerical and Technical Offer Data"
            ],
            "Dynamic": true,
            "ResourceName": "PUB_5MinImbalPrc_201911010145.xml"
        },
        {
            "_id": "5dbb98ae9620d961a5602c62",
            "Date": "2019-11-01",
            "PublishTime": "2019-11-01T02:00:03",
            "DPuG_ID": "BM-020",
            "ReportName": "Aggregated Final Physical Notifications",
            "Group": [
                "Inputs, Commerical and Technical Offer Data"
            ],
            "Dynamic": false,
            "ResourceName": "PUB_HlfHrlyAggregatedPN_201911010200.xml"
        },
        {
            "_id": "5dbb98ae9620d961a5602c63",
            "Date": "2019-11-01",
            "PublishTime": "2019-11-01T02:00:21",
            "DPuG_ID": "BM-014",
            "ReportName": "Forecast Imbalance",
            "Group": [
                "Forecast Data"
            ],
            "Dynamic": true,
            "ResourceName": "PUB_HrlyForecastImbalance_201911010200.xml"
        },
        {
            "_id": "5dbb98ae9620d961a5602c8e",
            "Date": "2019-11-01",
            "PublishTime": "2019-11-01T02:03:05",
            "DPuG_ID": "BM-163",
            "ReportName": "RTIC OPERATIONAL SCHEDULE REPORT",
            "Group": [
                "Inputs, Commerical and Technical Offer Data"
            ],
            "Dynamic": false,
            "ResourceName": "PUB_RTCOperationalSchedule_201911010203.xml"
        },
        {
            "_id": "5dbb9c2e9620d96a9b23e344",
            "Date": "2019-11-01",
            "PublishTime": "2019-11-01T02:12:31",
            "DPuG_ID": "BM-025",
            "ReportName": "Imbalance Price Report (Imbalance Pricing Period)",
            "Group": [
                "Inputs, Commerical and Technical Offer Data"
            ],
            "Dynamic": true,
            "ResourceName": "PUB_5MinImbalPrc_201911010150.xml"
        },
        {
            "_id": "5dbb9fb69620d973e7401f9f",
            "Date": "2019-11-01",
            "PublishTime": "2019-11-01T02:37:41",
            "DPuG_ID": "BM-025",
            "ReportName": "Imbalance Price Report (Imbalance Pricing Period)",
            "Group": [
                "Inputs, Commerical and Technical Offer Data"
            ],
            "Dynamic": true,
            "ResourceName": "PUB_5MinImbalPrc_201911010215.xml"
        },
        {
            "_id": "5dbbadc59620d919fb4142db",
            "Date": "2019-11-01",
            "PublishTime": "2019-11-01T03:27:31",
            "DPuG_ID": "BM-025",
            "ReportName": "Imbalance Price Report (Imbalance Pricing Period)",
            "Group": [
                "Inputs, Commerical and Technical Offer Data"
            ],
            "Dynamic": true,
            "ResourceName": "PUB_5MinImbalPrc_201911010305.xml"
        },
        {
            "_id": "5dbbb1469620d923d43d8dc2",
            "Date": "2019-11-01",
            "PublishTime": "2019-11-01T03:42:32",
            "DPuG_ID": "BM-027",
            "ReportName": "Imbalance Price Supporting Information Report",
            "Group": [
                "Inputs, Commerical and Technical Offer Data"
            ],
            "Dynamic": false,
            "ResourceName": "PUB_5MinImbalPrcSuppInfo_201911010320.xml"
        },
        {
            "_id": "5dbbb1469620d923d43d8dc3",
            "Date": "2019-11-01",
            "PublishTime": "2019-11-01T03:48:54",
            "DPuG_ID": "BM-027",
            "ReportName": "Imbalance Price Supporting Information Report",
            "Group": [
                "Inputs, Commerical and Technical Offer Data"
            ],
            "Dynamic": false,
            "ResourceName": "PUB_5MinImbalPrcSuppInfo_201911010325.xml"
        },
        {
            "_id": "5dbbb1469620d923d43d8dc5",
            "Date": "2019-11-01",
            "PublishTime": "2019-11-01T03:48:41",
            "DPuG_ID": "BM-025",
            "ReportName": "Imbalance Price Report (Imbalance Pricing Period)",
            "Group": [
                "Inputs, Commerical and Technical Offer Data"
            ],
            "Dynamic": true,
            "ResourceName": "PUB_5MinImbalPrc_201911010325.xml"
        },
        {
            "_id": "5dbbb4cc9620d92d224afd32",
            "Date": "2019-11-01",
            "PublishTime": "2019-11-01T04:02:43",
            "DPuG_ID": "BM-026",
            "ReportName": "Imbalance Price Report (Imbalance Settlement Period)",
            "Group": [
                "Inputs, Commerical and Technical Offer Data"
            ],
            "Dynamic": true,
            "ResourceName": "PUB_30MinAvgImbalPrc_201911010300.xml"
        },
        {
            "_id": "5dbbb84f9620d9370f0e2c35",
            "Date": "2019-11-01",
            "PublishTime": "2019-11-01T04:18:36",
            "DPuG_ID": "BM-025",
            "ReportName": "Imbalance Price Report (Imbalance Pricing Period)",
            "Group": [
                "Inputs, Commerical and Technical Offer Data"
            ],
            "Dynamic": true,
            "ResourceName": "PUB_5MinImbalPrc_201911010355.xml"
        },
        {
            "_id": "5dbbb84f9620d9370f0e2c37",
            "Date": "2019-11-01",
            "PublishTime": "2019-11-01T04:22:35",
            "DPuG_ID": "BM-025",
            "ReportName": "Imbalance Price Report (Imbalance Pricing Period)",
            "Group": [
                "Inputs, Commerical and Technical Offer Data"
            ],
            "Dynamic": true,
            "ResourceName": "PUB_5MinImbalPrc_201911010400.xml"
        },
        {
            "_id": "5dbbb8509620d9370f0e2cb0",
            "Date": "2019-11-01",
            "PublishTime": "2019-11-01T04:15:02",
            "DPuG_ID": "BM-161",
            "ReportName": "Hourly SO Interconnector Trades Report",
            "Group": [
                "Inputs, Commerical and Technical Offer Data"
            ],
            "Dynamic": true,
            "ResourceName": "PUB_HrlyIntconTrades_201911010300.xml"
        },
        {
            "_id": "5dbbbf569620d94a3771a0b3",
            "Date": "2019-11-01",
            "PublishTime": "2019-11-01T04:47:42",
            "DPuG_ID": "BM-027",
            "ReportName": "Imbalance Price Supporting Information Report",
            "Group": [
                "Inputs, Commerical and Technical Offer Data"
            ],
            "Dynamic": false,
            "ResourceName": "PUB_5MinImbalPrcSuppInfo_201911010425.xml"
        },
        {
            "_id": "5dbbbf569620d94a3771a0b5",
            "Date": "2019-11-01",
            "PublishTime": "2019-11-01T04:47:30",
            "DPuG_ID": "BM-025",
            "ReportName": "Imbalance Price Report (Imbalance Pricing Period)",
            "Group": [
                "Inputs, Commerical and Technical Offer Data"
            ],
            "Dynamic": true,
            "ResourceName": "PUB_5MinImbalPrc_201911010425.xml"
        },
        {
            "_id": "5dbbcd669620d96fb37cace2",
            "Date": "2019-11-01",
            "PublishTime": "2019-11-01T05:43:33",
            "DPuG_ID": "BM-027",
            "ReportName": "Imbalance Price Supporting Information Report",
            "Group": [
                "Inputs, Commerical and Technical Offer Data"
            ],
            "Dynamic": false,
            "ResourceName": "PUB_5MinImbalPrcSuppInfo_201911010520.xml"
        },
        {
            "_id": "5dbbcd669620d96fb37cace3",
            "Date": "2019-11-01",
            "PublishTime": "2019-11-01T05:48:43",
            "DPuG_ID": "BM-027",
            "ReportName": "Imbalance Price Supporting Information Report",
            "Group": [
                "Inputs, Commerical and Technical Offer Data"
            ],
            "Dynamic": false,
            "ResourceName": "PUB_5MinImbalPrcSuppInfo_201911010525.xml"
        },
        {
            "_id": "5dbbcd669620d96fb37cace7",
            "Date": "2019-11-01",
            "PublishTime": "2019-11-01T05:53:55",
            "DPuG_ID": "BM-025",
            "ReportName": "Imbalance Price Report (Imbalance Pricing Period)",
            "Group": [
                "Inputs, Commerical and Technical Offer Data"
            ],
            "Dynamic": true,
            "ResourceName": "PUB_5MinImbalPrc_201911010530.xml"
        },
        {
            "_id": "5dbbd0ec9620d978de77bfe2",
            "Date": "2019-11-01",
            "PublishTime": "2019-11-01T06:02:04",
            "DPuG_ID": "BM-016",
            "ReportName": "Aggregated Wind Forecast",
            "Group": [
                "Forecast Data"
            ],
            "Dynamic": true,
            "ResourceName": "PUB_15MinAggWindFcst_201911010602.xml"
        },
        {
            "_id": "5dbbd0f09620d978de77c75a",
            "Date": "2019-11-01",
            "PublishTime": "2019-11-01T06:00:33",
            "DPuG_ID": "BM-022",
            "ReportName": "System Shortfall Imbalance Index and System Imbalance Flattening Factor",
            "Group": [
                "Inputs, Commerical and Technical Offer Data"
            ],
            "Dynamic": false,
            "ResourceName": "PUB_HrlySsiiSiff_201911010600.xml"
        }
    ]
}